{
  "drumSounds": [
    {
      "id": "Heater-1",
      "innerText": "Q",
      "soundURL": "audio/Heater-1.mp3",
      "power": true
    },
    {
      "id": "Heater-2",
      "innerText": "W",
      "soundURL": "audio/Heater-2.mp3",
      "power": true
    },
    {
      "id": "Heater-3",
      "innerText": "E",
      "soundURL": "audio/Heater-3.mp3",
      "power": true
    },
    {
      "id": "Heater-4_1",
      "innerText": "A",
      "soundURL": "audio/Heater-4_1.mp3",
      "power": true
    },
    {
      "id": "Heater-6",
      "innerText": "S",
      "soundURL": "audio/Heater-6.mp3",
      "power": true
    },
    {
      "id": "Dsc-Oh",
      "innerText": "D",
      "soundURL": "audio/Dsc_Oh.mp3",
      "power": true
    },
    {
      "id": "Kick-n-Hat",
      "innerText": "Z",
      "soundURL": "audio/Kick_n_Hat.mp3",
      "power": true
    },
    {
      "id": "RP4-Kick-1",
      "innerText": "X",
      "soundURL": "audio/RP4_KICK_1.mp3",
      "power": true
    },
    {
      "id": "Brk-Snr",
      "innerText": "C",
      "soundURL": "audio/Brk_Snr.mp3",
      "power": true
    }
  ],
  "catSounds": [
    {
      "id": "cat-meow-4",
      "innerText": "Q",
      "soundURL": "audio/cat-meow-4.mp3",
      "power": true
    },
    {
      "id": "angry-cat",
      "innerText": "W",
      "soundURL": "audio/angry-cat.mp3",
      "power": true
    },
    {
      "id": "cat-meow",
      "innerText": "E",
      "soundURL": "audio/cat-meow.mp3",
      "power": true
    },
    {
      "id": "cat-meow-2",
      "innerText": "A",
      "soundURL": "audio/cat-meow-2.mp3",
      "power": true
    },
    {
      "id": "cat-meow-3",
      "innerText": "S",
      "soundURL": "audio/cat-meow-3.mp3",
      "power": true
    },
    {
      "id": "cat-scream",
      "innerText": "D",
      "soundURL": "audio/cat-scream.mp3",
      "power": true
    },
    {
      "id": "kitten-meow",
      "innerText": "Z",
      "soundURL": "audio/kitten-meow.mp3",
      "power": true
    },
    {
      "id": "tomacat",
      "innerText": "X",
      "soundURL": "audio/tomcat.mp3",
      "power": true
    },
    {
      "id": "lion",
      "innerText": "C",
      "soundURL": "audio/lion.mp3",
      "power": true
    }
  ]
}
